https://www.lameteo.org/index.php/climatologie/normales-climatiques												
Station	Jan	Feb	Mar	Apr	May	Jun	Jul	Aug	Sep	Oct	Nov	Dec
Agen	5,7	6,9	9,8	12,1	16	19,4	21,6	21,5	18,4	14,7	9,3	6,2
Mende	0,6	1,3	3,7	5,5	9,6	13,1	16,2	16	12,8	8,8	3,8	1,8
Millau	3,2	3,9	6,7	9,1	13,2	16,9	19,9	19,6	15,9	11,9	6,7	4
Ajaccio	9	9	10,6	12,9	16,7	20,1	22,9	23,2	20,5	17,4	13,2	10,1
Albi	5,7	6,7	9,7	12,1	16,5	20	22,6	22,5	18,6	14,7	9,1	6
Aubenas	4,8	6,1	9,5	12,4	16,4	20,7	23,7	22,9	18,8	14,1	8,8	5
Auch	5,5	6,5	9,2	11,7	15,6	19,2	21,8	21,5	18,2	14,3	9,9	6
Aurillac	3	3,8	6,6	9	13	16,3	18,8	18,5	15	11,6	6,6	3,9
Bastia	9,4	9,4	11,2	13,3	17,3	21	24,1	24,5	21,2	17,6	13,3	10,4
